{"properties": [
  {
    "name": "pointsystem.otherpoints.captain",
    "type": "java.lang.String",
    "description": "A description for 'pointsystem.otherpoints.captain'"
  },
  {
    "name": "pointsystem.otherpoints.wicketKeeper",
    "type": "java.lang.String",
    "description": "A description for 'pointsystem.otherpoints.wicketKeeper'"
  }
]}